^C:\CCC\COURSE\SA\C\_CASE\VIDEOPLAY\FFMPEG-VIDEO-PLAYER\TUTORIAL07\CMAKELISTS.TXT
setlocal
"C:\Program Files (x86)\Microsoft Visual Studio\2019\Community\Common7\IDE\CommonExtensions\Microsoft\CMake\CMake\bin\cmake.exe" -SC:/ccc/course/sa/c/_case/videoplay/ffmpeg-video-player/tutorial07 -BC:/ccc/course/sa/c/_case/videoplay/ffmpeg-video-player/tutorial07 --check-stamp-file C:/ccc/course/sa/c/_case/videoplay/ffmpeg-video-player/tutorial07/CMakeFiles/generate.stamp
if %errorlevel% neq 0 goto :cmEnd
:cmEnd
endlocal & call :cmErrorLevel %errorlevel% & goto :cmDone
:cmErrorLevel
exit /b %1
:cmDone
if %errorlevel% neq 0 goto :VCEnd
