^C:\CCC\COURSE\SA\C\_CASE\VIDEOPLAY\FFMPEG-VIDEO-PLAYER\TUTORIAL07\CMAKEFILES\F70D3D60447888D9E51E7C9603BE1C91\GENERATE.STAMP.RULE
setlocal
"C:\Program Files (x86)\Microsoft Visual Studio\2019\Community\Common7\IDE\CommonExtensions\Microsoft\CMake\CMake\bin\cmake.exe" -SC:/ccc/course/sa/c/_case/videoplay/ffmpeg-video-player/tutorial07 -BC:/ccc/course/sa/c/_case/videoplay/ffmpeg-video-player/tutorial07 --check-stamp-list CMakeFiles/generate.stamp.list --vs-solution-file C:/ccc/course/sa/c/_case/videoplay/ffmpeg-video-player/tutorial07/tutorial07.sln
if %errorlevel% neq 0 goto :cmEnd
:cmEnd
endlocal & call :cmErrorLevel %errorlevel% & goto :cmDone
:cmErrorLevel
exit /b %1
:cmDone
if %errorlevel% neq 0 goto :VCEnd
