^C:\CCC\COURSE\SA\C\_CASE\VIDEOPLAY\FFMPEG-VIDEO-PLAYER\TUTORIAL07\CMAKEFILES\F70D3D60447888D9E51E7C9603BE1C91\GENERATE.STAMP.RULE
C:\PROGRAM FILES (X86)\MICROSOFT VISUAL STUDIO\2019\COMMUNITY\COMMON7\IDE\COMMONEXTENSIONS\MICROSOFT\CMAKE\CMAKE\SHARE\CMAKE-3.20\MODULES\CMAKECINFORMATION.CMAKE
C:\PROGRAM FILES (X86)\MICROSOFT VISUAL STUDIO\2019\COMMUNITY\COMMON7\IDE\COMMONEXTENSIONS\MICROSOFT\CMAKE\CMAKE\SHARE\CMAKE-3.20\MODULES\CMAKECOMMONLANGUAGEINCLUDE.CMAKE
C:\PROGRAM FILES (X86)\MICROSOFT VISUAL STUDIO\2019\COMMUNITY\COMMON7\IDE\COMMONEXTENSIONS\MICROSOFT\CMAKE\CMAKE\SHARE\CMAKE-3.20\MODULES\CMAKEGENERICSYSTEM.CMAKE
C:\PROGRAM FILES (X86)\MICROSOFT VISUAL STUDIO\2019\COMMUNITY\COMMON7\IDE\COMMONEXTENSIONS\MICROSOFT\CMAKE\CMAKE\SHARE\CMAKE-3.20\MODULES\CMAKEINITIALIZECONFIGS.CMAKE
C:\PROGRAM FILES (X86)\MICROSOFT VISUAL STUDIO\2019\COMMUNITY\COMMON7\IDE\COMMONEXTENSIONS\MICROSOFT\CMAKE\CMAKE\SHARE\CMAKE-3.20\MODULES\CMAKELANGUAGEINFORMATION.CMAKE
C:\PROGRAM FILES (X86)\MICROSOFT VISUAL STUDIO\2019\COMMUNITY\COMMON7\IDE\COMMONEXTENSIONS\MICROSOFT\CMAKE\CMAKE\SHARE\CMAKE-3.20\MODULES\CMAKERCINFORMATION.CMAKE
C:\PROGRAM FILES (X86)\MICROSOFT VISUAL STUDIO\2019\COMMUNITY\COMMON7\IDE\COMMONEXTENSIONS\MICROSOFT\CMAKE\CMAKE\SHARE\CMAKE-3.20\MODULES\CMAKESYSTEMSPECIFICINFORMATION.CMAKE
C:\PROGRAM FILES (X86)\MICROSOFT VISUAL STUDIO\2019\COMMUNITY\COMMON7\IDE\COMMONEXTENSIONS\MICROSOFT\CMAKE\CMAKE\SHARE\CMAKE-3.20\MODULES\CMAKESYSTEMSPECIFICINITIALIZE.CMAKE
C:\PROGRAM FILES (X86)\MICROSOFT VISUAL STUDIO\2019\COMMUNITY\COMMON7\IDE\COMMONEXTENSIONS\MICROSOFT\CMAKE\CMAKE\SHARE\CMAKE-3.20\MODULES\COMPILER\CMAKECOMMONCOMPILERMACROS.CMAKE
C:\PROGRAM FILES (X86)\MICROSOFT VISUAL STUDIO\2019\COMMUNITY\COMMON7\IDE\COMMONEXTENSIONS\MICROSOFT\CMAKE\CMAKE\SHARE\CMAKE-3.20\MODULES\COMPILER\MSVC-C.CMAKE
C:\PROGRAM FILES (X86)\MICROSOFT VISUAL STUDIO\2019\COMMUNITY\COMMON7\IDE\COMMONEXTENSIONS\MICROSOFT\CMAKE\CMAKE\SHARE\CMAKE-3.20\MODULES\PLATFORM\WINDOWS-MSVC-C.CMAKE
C:\PROGRAM FILES (X86)\MICROSOFT VISUAL STUDIO\2019\COMMUNITY\COMMON7\IDE\COMMONEXTENSIONS\MICROSOFT\CMAKE\CMAKE\SHARE\CMAKE-3.20\MODULES\PLATFORM\WINDOWS-MSVC.CMAKE
C:\PROGRAM FILES (X86)\MICROSOFT VISUAL STUDIO\2019\COMMUNITY\COMMON7\IDE\COMMONEXTENSIONS\MICROSOFT\CMAKE\CMAKE\SHARE\CMAKE-3.20\MODULES\PLATFORM\WINDOWS.CMAKE
C:\PROGRAM FILES (X86)\MICROSOFT VISUAL STUDIO\2019\COMMUNITY\COMMON7\IDE\COMMONEXTENSIONS\MICROSOFT\CMAKE\CMAKE\SHARE\CMAKE-3.20\MODULES\PLATFORM\WINDOWSPATHS.CMAKE
C:\CCC\COURSE\SA\C\_CASE\VIDEOPLAY\FFMPEG-VIDEO-PLAYER\TUTORIAL07\CMAKEFILES\3.20.21032501-MSVC_2\CMAKECCOMPILER.CMAKE
C:\CCC\COURSE\SA\C\_CASE\VIDEOPLAY\FFMPEG-VIDEO-PLAYER\TUTORIAL07\CMAKEFILES\3.20.21032501-MSVC_2\CMAKERCCOMPILER.CMAKE
C:\CCC\COURSE\SA\C\_CASE\VIDEOPLAY\FFMPEG-VIDEO-PLAYER\TUTORIAL07\CMAKEFILES\3.20.21032501-MSVC_2\CMAKESYSTEM.CMAKE
C:\CCC\COURSE\SA\C\_CASE\VIDEOPLAY\FFMPEG-VIDEO-PLAYER\TUTORIAL07\CMAKELISTS.TXT
